<?xml version="1.0" encoding="utf-8"?>
<!-- Generator: Adobe Illustrator 23.0.3, SVG Export Plug-In . SVG Version: 6.00 Build 0)  -->
<svg version="1.1" id="Capa_1" xmlns="http://www.w3.org/2000/svg" xmlns:xlink="http://www.w3.org/1999/xlink" x="0px" y="0px"
	 viewBox="0 0 512 512" style="enable-background:new 0 0 512 512;" xml:space="preserve">
<style type="text/css">
	.st0{fill:#FF437C;}
	.st1{fill:#FFFFFF;}
</style>
<path class="st0" d="M332,280c-4.4,0-8,3.6-8,8v107.3V432v16v8v2h-0.1c-1,21.1-18.6,38-39.9,38H92c-21.4,0-38.9-16.9-39.9-38H52v-2
	v-8v-16v-36.7V80h88c4.4,0,8-3.6,8-8c0-4.4-3.6-8-8-8H52v-8c0-22.1,17.9-40,40-40h192c4.4,0,8-3.6,8-8s-3.6-8-8-8H92
	C61.1,0,36,25.1,36,56v400c0,30.9,25.1,56,56,56h192c30.9,0,56-25.1,56-56V288C340,283.6,336.4,280,332,280z"/>
<g>
	<path class="st0" d="M204,464h-32c-4.4,0-8,3.6-8,8c0,4.4,3.6,8,8,8h32c4.4,0,8-3.6,8-8C212,467.6,208.4,464,204,464z"/>
	<path class="st0" d="M140,32c-2.1,0-4.2,0.8-5.7,2.3c-1.5,1.5-2.3,3.6-2.3,5.7s0.9,4.2,2.3,5.7c1.5,1.5,3.5,2.3,5.7,2.3
		s4.2-0.8,5.7-2.3c1.5-1.5,2.3-3.5,2.3-5.7s-0.8-4.2-2.3-5.7C144.2,32.8,142.1,32,140,32z"/>
	<path class="st0" d="M420,32H212c-30.9,0-56,25.1-56,56v120c0,28.2,20.9,51.5,48,55.4v29.3c0,6.5,3.9,12.3,9.9,14.8
		c2,0.8,4.1,1.2,6.1,1.2c4.2,0,8.2-1.6,11.3-4.7l40-40H420c30.9,0,56-25.1,56-56V88C476,57.1,450.9,32,420,32z"/>
</g>
<g>
	<path class="st1" d="M246.1,165.2c0-3.5-1.2-6.3-3.7-8.2c-2.5-1.9-7-3.9-13.5-5.8c-6.5-2-11.7-4.1-15.5-6.5
		c-7.3-4.6-11-10.6-11-18.1c0-6.5,2.6-11.9,7.9-16.1c5.3-4.2,12.2-6.3,20.6-6.3c5.6,0,10.6,1,15,3.1c4.4,2.1,7.8,5,10.4,8.8
		c2.5,3.8,3.8,8.1,3.8,12.7h-14c0-4.2-1.3-7.5-4-9.9c-2.6-2.4-6.4-3.6-11.3-3.6c-4.6,0-8.1,1-10.7,2.9c-2.5,2-3.8,4.7-3.8,8.2
		c0,3,1.4,5.4,4.1,7.4c2.7,2,7.2,3.9,13.5,5.8c6.3,1.9,11.3,4,15.1,6.4c3.8,2.4,6.6,5.1,8.4,8.2c1.8,3.1,2.7,6.7,2.7,10.8
		c0,6.7-2.6,12.1-7.7,16c-5.2,4-12.1,6-21,6c-5.8,0-11.2-1.1-16.1-3.2c-4.9-2.2-8.7-5.1-11.4-8.9c-2.7-3.8-4.1-8.2-4.1-13.3h14
		c0,4.6,1.5,8.1,4.5,10.6c3,2.5,7.4,3.8,13,3.8c4.9,0,8.5-1,11-3C244.9,171,246.1,168.4,246.1,165.2z"/>
	<path class="st1" d="M296.3,105.3l23.3,61.8l23.2-61.8h18.1v80.6h-14v-26.6l1.4-35.6l-23.8,62.1h-10l-23.8-62.1l1.4,35.5v26.6h-14
		v-80.6H296.3z"/>
	<path class="st1" d="M425.2,165.2c0-3.5-1.2-6.3-3.7-8.2c-2.5-1.9-7-3.9-13.5-5.8c-6.5-2-11.7-4.1-15.5-6.5
		c-7.3-4.6-11-10.6-11-18.1c0-6.5,2.6-11.9,7.9-16.1c5.3-4.2,12.2-6.3,20.6-6.3c5.6,0,10.6,1,15,3.1c4.4,2.1,7.8,5,10.4,8.8
		c2.5,3.8,3.8,8.1,3.8,12.7h-14c0-4.2-1.3-7.5-4-9.9c-2.6-2.4-6.4-3.6-11.3-3.6c-4.6,0-8.1,1-10.7,2.9c-2.5,2-3.8,4.7-3.8,8.2
		c0,3,1.4,5.4,4.1,7.4c2.7,2,7.2,3.9,13.5,5.8c6.3,1.9,11.3,4,15.1,6.4c3.8,2.4,6.6,5.1,8.4,8.2c1.8,3.1,2.7,6.7,2.7,10.8
		c0,6.7-2.6,12.1-7.7,16c-5.2,4-12.1,6-21,6c-5.8,0-11.2-1.1-16.1-3.2c-4.9-2.2-8.7-5.1-11.4-8.9c-2.7-3.8-4.1-8.2-4.1-13.3h14
		c0,4.6,1.5,8.1,4.5,10.6c3,2.5,7.4,3.8,13,3.8c4.9,0,8.5-1,11-3C424,171,425.2,168.4,425.2,165.2z"/>
</g>
</svg>
